ICD-11 • WHOicd
…
Searching for codes

The icd11_search() function allows you to search for
text and retrieve codes that contain that text. As an example, we can
search for all codes containing or related to malaria:

abortion_codes <- icd11_search(token, text = "malaria")

Which you can retrieve() the codes and titles of:

tibble::tibble(
  code = abortion_codes |> retrieve("theCode"),
  title = abortion_codes |> retrieve("title")
)
#> # A tibble: 36 × 2
#>    code   title                                                               
#>    <chr>  <chr>                                                               
#>  1 1F45   Malaria without parasitological confirmation                        
#>  2 1F4Z   Malaria, unspecified                                                
#>  3 1F42.Z Plasmodium malariae malaria without complication                    
#>  4 1F44   Other parasitologically confirmed malaria                           
#>  5 KA64.Y Other specified parasitic diseases in the fetus or newborn          
#>  6 1F40.Z Malaria due to Plasmodium falciparum, unspecified                   
#>  7 1F43   Malaria due to Plasmodium ovale                                     
#>  8 1F41.Z Plasmodium vivax malaria without complication                       
#>  9 QC42.Y Other specified personal history of infectious or parasitic diseases
#> 10 KA64.1 Congenital falciparum malaria                                       
#> # ℹ 26 more rows
…
